CouponCode,Description,PercentDiscount,DollarDiscount,StartDate,EndDate,NumUses,DailySingleUse,LocationName,EnablePND/PBL,EnablePayByStall,StallRange
123654,,33,,Yes,,22,,,,Yes,
7777,,75,,,,12,Yes,,Yes,Yes,2
8888,,,50,,,35,,,Yes,,
9999,,,15,,,45,Yes,,Yes,,
