{
	"instance.name" : "VANAPP01",
	"instance.port" : 8080,
	
	"tomcat.cmd.start" : "",
	"tomcat.cmd.stop" : "",

	"memcached.nodes" : "n1:localhost:11211",

	"ehcache.mcast.addr" : "230.0.0.1",
	"ehcache.mcast.port" : 4446,
	"ehcache.mcast.ttl" : 1,
	"ehcache.port" : 40001,
	"ehcache.remoteObject.port" : 40011,
	"ehcache.diskStore" : "java.io.tmpdir",

	"redis.host" : "devredis",
	"redis.port" : 6380,

	"mq.host" : "172.30.5.203",
	"mq.port" : 5672,
	"mq.username" : "",
	"mq.password" : "",
	"mq.queue.prefix" : "",

	"db.username" : "",
	"db.password" : "",
	"db.show.sql" : "false",

	"db.url" : "jdbc:mysql://devdb:3306",
	"db.name" : "",

	"dbIRIS.url" : "jdbc:mysql://devdb:3306",
	"dbIRIS.name" : "",

	"dbEMS6.url" : "jdbc:mysql://devdb:3306",
	"dbEMS6.name" : "",

	"dev.comment.start" : "@dev.comment.start@",
	"dev.comment.end" : "@dev.comment.end@",
	"dev.uncomment.start" : "@dev.uncomment.start@",
	"dev.uncomment.end" : "@dev.uncomment.end@",

	"nondev.comment.start" : "@nondev.comment.start@",
	"nondev.comment.end" : "@dev.uncomment.end@",
	"nondev.uncomment.start" : "@nondev.uncomment.start@",
	"nondev.uncomment.end" : "@nondev.uncomment.end@",
	
	"data.injection.comment.start" : "@data.injection.comment.start@",
	"data.injection.comment.end" : "@data.injection.comment.end@",
	"data.injection.uncomment.start" : "@data.injection.uncomment.start@",
	"data.injection.uncomment.end" : "@data.injection.uncomment.end@"
}