1421708114461,931,Tx - Cash,200,OK,Test Thread 1-1,text,true,205,930
1421708302493,1161,Tx - Cash,200,OK,Test Thread 1-1,text,true,205,1159
1421709283984,1481,Tx - Cash,200,OK,Test Thread 1-1,text,true,205,1480
1421709323724,637,Tx - Cash,200,OK,Test Thread 1-1,text,true,205,636
1421709856809,1815,Tx - Cash,200,OK,Test Thread 1-1,text,true,205,1814
1421710121542,1628,Tx - Cash,200,OK,Test Thread 1-1,text,true,205,1627
1421710170477,1578,Tx - Cash,200,OK,Test Thread 1-1,text,true,205,1577
1421710205718,1967,Tx - Cash,200,OK,Test Thread 1-1,text,true,205,1966
1421710272393,672,Tx - Cash,200,OK,Test Thread 1-1,text,true,205,671
1421710477815,1509,Tx - Cash,200,OK,Test Thread 1-1,text,true,205,1507
1421711550676,674,Tx - Cash,200,OK,Test Thread 1-1,text,true,205,673
1421711889257,1576,Bill Acceptor - Not Present,200,OK,Test Thread 1-1,text,false,10,1575
1421711890907,179,Bill Acceptor - Jam,200,OK,Test Thread 1-1,text,false,10,179
1421711891126,23,Bill Acceptor - Unable To Stack,200,OK,Test Thread 1-1,text,false,10,23
1421711891436,24,Bill Stacker - Not Present,200,OK,Test Thread 1-1,text,false,10,24
1421711891481,21,Bill Stacker - Full,200,OK,Test Thread 1-1,text,false,10,21
1421711891522,172,Bill Canister - Removed,200,OK,Test Thread 1-1,text,false,10,171
1421711891733,26,Card Reader - Not Present,200,OK,Test Thread 1-1,text,false,10,26
1421711891776,67,Coin Acceptor - Not Present,200,OK,Test Thread 1-1,text,false,10,67
1421711891859,20,Coin Acceptor - Jam,200,OK,Test Thread 1-1,text,false,10,19
1421711891893,106,Coin Hopper - Not Present,200,OK,Test Thread 1-1,text,false,10,106
1421711892030,128,Coin Hopper - Empty,200,OK,Test Thread 1-1,text,false,10,128
1421711892171,20,Coin Changer - Not Present,200,OK,Test Thread 1-1,text,false,10,20
1421711892204,95,Coin Changer - Jam,200,OK,Test Thread 1-1,text,false,10,94
1421711892310,302,Coin Changer - Empty,200,OK,Test Thread 1-1,text,false,10,302
1421711892622,48,Coin Changer - Low,200,OK,Test Thread 1-1,text,false,10,48
1421711892682,27,Coin Escrow - Not Present,200,OK,Test Thread 1-1,text,false,10,27
1421711892720,18,Coin Escrow - Jam,200,OK,Test Thread 1-1,text,false,10,18
1421711892747,21,Coin Canister - Removed,200,OK,Test Thread 1-1,text,false,10,21
1421711892777,21,Pay Station - Alarm On,200,OK,Test Thread 1-1,text,false,10,20
1421711892806,22,Pay Station - Door Opened,200,OK,Test Thread 1-1,text,false,10,22
1421711892837,22,Pay Station - Service Mode Enabled,200,OK,Test Thread 1-1,text,false,10,21
1421711892867,21,Pay Station - Low Power Shutdown On,200,OK,Test Thread 1-1,text,false,10,21
1421711892897,21,Pay Station - Shock On,200,OK,Test Thread 1-1,text,false,10,21
1421711892928,21,Pay Station - Public Key Update,200,OK,Test Thread 1-1,text,false,10,21
1421711892958,25,Pay Station - Coin Changer Low [Old],200,OK,Test Thread 1-1,text,false,10,24
1421711892991,27,Pay Station - Coin Changer High [Old],200,OK,Test Thread 1-1,text,false,10,27
1421711893026,22,Pay Station - Coin Changer Jam [Old],200,OK,Test Thread 1-1,text,false,10,22
1421711893057,21,Pay Station - Pay Station Failure [?],200,OK,Test Thread 1-1,text,false,10,21
1421711893087,21,Printer - Not Present,200,OK,Test Thread 1-1,text,false,10,21
1421711893118,20,Printer - Cutter Error,200,OK,Test Thread 1-1,text,false,10,20
1421711893146,22,Printer - Head Error,200,OK,Test Thread 1-1,text,false,10,22
1421711893177,21,Printer - Lever Disengaged,200,OK,Test Thread 1-1,text,false,10,20
1421711893206,22,Printer - Paper Low,200,OK,Test Thread 1-1,text,false,10,22
1421711893237,21,Printer - Paper Out,200,OK,Test Thread 1-1,text,false,10,21
1421711893267,21,Printer - Paper Jam,200,OK,Test Thread 1-1,text,false,10,21
1421711893297,21,Printer - Temperature Error,200,OK,Test Thread 1-1,text,false,10,21
1421711893326,22,Printer - Voltage Error,200,OK,Test Thread 1-1,text,false,10,22
1421711893356,22,RFID Card Reader - Not Present,200,OK,Test Thread 1-1,text,false,10,22
1421711893391,27,Tx - Cash,200,OK,Test Thread 1-1,text,false,10,27
1421711909794,547,Bill Acceptor - Not Present,200,OK,Test Thread 1-1,text,false,10,546
1421711910388,21,Bill Acceptor - Jam,200,OK,Test Thread 1-1,text,false,10,21
1421711910431,27,Bill Acceptor - Unable To Stack,200,OK,Test Thread 1-1,text,false,10,27
1421711910750,29,Bill Stacker - Not Present,200,OK,Test Thread 1-1,text,false,10,28
1421711910799,21,Bill Stacker - Full,200,OK,Test Thread 1-1,text,false,10,21
1421711910837,21,Bill Canister - Removed,200,OK,Test Thread 1-1,text,false,10,21
1421711910881,27,Card Reader - Not Present,200,OK,Test Thread 1-1,text,false,10,27
1421711910927,72,Coin Acceptor - Not Present,200,OK,Test Thread 1-1,text,false,10,72
1421711911015,23,Coin Acceptor - Jam,200,OK,Test Thread 1-1,text,false,10,23
1421711911086,81,Coin Hopper - Not Present,200,OK,Test Thread 1-1,text,false,10,81
1421711911181,179,Coin Hopper - Empty,200,OK,Test Thread 1-1,text,false,10,179
1421711911373,116,Coin Changer - Not Present,200,OK,Test Thread 1-1,text,false,10,115
1421711911539,220,Coin Changer - Jam,200,OK,Test Thread 1-1,text,false,10,219
1421711911768,20,Coin Changer - Empty,200,OK,Test Thread 1-1,text,false,10,20
1421711911797,45,Coin Changer - Low,200,OK,Test Thread 1-1,text,false,10,45
1421711911853,24,Coin Escrow - Not Present,200,OK,Test Thread 1-1,text,false,10,24
1421711911886,21,Coin Escrow - Jam,200,OK,Test Thread 1-1,text,false,10,21
1421711911916,21,Coin Canister - Removed,200,OK,Test Thread 1-1,text,false,10,21
1421711911947,20,Pay Station - Alarm On,200,OK,Test Thread 1-1,text,false,10,20
1421711911976,21,Pay Station - Door Opened,200,OK,Test Thread 1-1,text,false,10,21
1421711912006,21,Pay Station - Service Mode Enabled,200,OK,Test Thread 1-1,text,false,10,21
1421711912036,21,Pay Station - Low Power Shutdown On,200,OK,Test Thread 1-1,text,false,10,21
1421711912066,31,Pay Station - Shock On,200,OK,Test Thread 1-1,text,false,10,31
1421711912109,21,Pay Station - Public Key Update,200,OK,Test Thread 1-1,text,false,10,21
1421711912141,27,Pay Station - Coin Changer Low [Old],200,OK,Test Thread 1-1,text,false,10,27
1421711912177,20,Pay Station - Coin Changer High [Old],200,OK,Test Thread 1-1,text,false,10,20
1421711912206,21,Pay Station - Coin Changer Jam [Old],200,OK,Test Thread 1-1,text,false,10,21
1421711912239,19,Pay Station - Pay Station Failure [?],200,OK,Test Thread 1-1,text,false,10,18
1421711912266,21,Printer - Not Present,200,OK,Test Thread 1-1,text,false,10,21
1421711912296,21,Printer - Cutter Error,200,OK,Test Thread 1-1,text,false,10,21
1421711912326,20,Printer - Head Error,200,OK,Test Thread 1-1,text,false,10,20
1421711912355,22,Printer - Lever Disengaged,200,OK,Test Thread 1-1,text,false,10,22
1421711912386,21,Printer - Paper Low,200,OK,Test Thread 1-1,text,false,10,21
1421711912416,21,Printer - Paper Out,200,OK,Test Thread 1-1,text,false,10,20
1421711912446,21,Printer - Paper Jam,200,OK,Test Thread 1-1,text,false,10,21
1421711912476,20,Printer - Temperature Error,200,OK,Test Thread 1-1,text,false,10,20
1421711912504,23,Printer - Voltage Error,200,OK,Test Thread 1-1,text,false,10,23
1421711912535,22,RFID Card Reader - Not Present,200,OK,Test Thread 1-1,text,false,10,22
1421711912567,27,Tx - Cash,200,OK,Test Thread 1-1,text,false,10,27
1421712038661,529,Bill Acceptor - Not Present,200,OK,Test Thread 1-1,text,false,10,529
1421712039246,21,Bill Acceptor - Jam,200,OK,Test Thread 1-1,text,false,10,21
1421712039290,25,Bill Acceptor - Unable To Stack,200,OK,Test Thread 1-1,text,false,10,25
1421712039601,24,Bill Stacker - Not Present,200,OK,Test Thread 1-1,text,false,10,24
1421712039646,24,Bill Stacker - Full,200,OK,Test Thread 1-1,text,false,10,23
1421712039686,29,Bill Canister - Removed,200,OK,Test Thread 1-1,text,false,10,29
1421712039732,24,Card Reader - Not Present,200,OK,Test Thread 1-1,text,false,10,24
1421712039774,75,Coin Acceptor - Not Present,200,OK,Test Thread 1-1,text,false,10,75
1421712039865,19,Coin Acceptor - Jam,200,OK,Test Thread 1-1,text,false,10,19
1421712039919,90,Coin Hopper - Not Present,200,OK,Test Thread 1-1,text,false,10,90
1421712040104,461,Coin Hopper - Empty,200,OK,Test Thread 1-1,text,false,10,455
1421712040577,27,Coin Changer - Not Present,200,OK,Test Thread 1-1,text,false,10,27
1421712040614,20,Coin Changer - Jam,200,OK,Test Thread 1-1,text,false,10,20
1421712040644,27,Coin Changer - Empty,200,OK,Test Thread 1-1,text,false,10,27
1421712040707,27,Coin Changer - Low,200,OK,Test Thread 1-1,text,false,10,27
1421712040745,19,Coin Escrow - Not Present,200,OK,Test Thread 1-1,text,false,10,19
1421712040774,20,Coin Escrow - Jam,200,OK,Test Thread 1-1,text,false,10,20
1421712040803,61,Coin Canister - Removed,200,OK,Test Thread 1-1,text,false,10,60
1421712040882,24,Pay Station - Alarm On,200,OK,Test Thread 1-1,text,false,10,23
1421712040921,25,Pay Station - Door Opened,200,OK,Test Thread 1-1,text,false,10,24
1421712040961,25,Pay Station - Service Mode Enabled,200,OK,Test Thread 1-1,text,false,10,24
1421712041001,23,Pay Station - Low Power Shutdown On,200,OK,Test Thread 1-1,text,false,10,23
1421712041033,21,Pay Station - Shock On,200,OK,Test Thread 1-1,text,false,10,21
1421712041064,20,Pay Station - Public Key Update,200,OK,Test Thread 1-1,text,false,10,19
1421712041094,26,Pay Station - Coin Changer Low [Old],200,OK,Test Thread 1-1,text,false,10,25
1421712041129,25,Pay Station - Coin Changer High [Old],200,OK,Test Thread 1-1,text,false,10,25
1421712041163,21,Pay Station - Coin Changer Jam [Old],200,OK,Test Thread 1-1,text,false,10,20
1421712041193,22,Pay Station - Pay Station Failure [?],200,OK,Test Thread 1-1,text,false,10,22
1421712041224,20,Printer - Not Present,200,OK,Test Thread 1-1,text,false,10,20
1421712041253,21,Printer - Cutter Error,200,OK,Test Thread 1-1,text,false,10,21
1421712041283,21,Printer - Head Error,200,OK,Test Thread 1-1,text,false,10,20
1421712041313,20,Printer - Lever Disengaged,200,OK,Test Thread 1-1,text,false,10,20
1421712041342,22,Printer - Paper Low,200,OK,Test Thread 1-1,text,false,10,22
1421712041373,20,Printer - Paper Out,200,OK,Test Thread 1-1,text,false,10,20
1421712041403,21,Printer - Paper Jam,200,OK,Test Thread 1-1,text,false,10,21
1421712041433,21,Printer - Temperature Error,200,OK,Test Thread 1-1,text,false,10,21
1421712041462,21,Printer - Voltage Error,200,OK,Test Thread 1-1,text,false,10,21
1421712041492,22,RFID Card Reader - Not Present,200,OK,Test Thread 1-1,text,false,10,21
1421712041524,27,Tx - Cash,200,OK,Test Thread 1-1,text,false,10,27
1421712384481,552,Bill Acceptor - Not Present,200,OK,Test Thread 1-1,text,false,10,551
1421712385102,24,Bill Acceptor - Jam,200,OK,Test Thread 1-1,text,false,10,24
1421712385149,26,Bill Acceptor - Unable To Stack,200,OK,Test Thread 1-1,text,false,10,26
1421712385460,26,Bill Stacker - Not Present,200,OK,Test Thread 1-1,text,false,10,25
1421712385506,25,Bill Stacker - Full,200,OK,Test Thread 1-1,text,false,10,25
1421712385548,27,Bill Canister - Removed,200,OK,Test Thread 1-1,text,false,10,27
1421712385599,53,Card Reader - Not Present,200,OK,Test Thread 1-1,text,false,10,53
1421712385670,36,Coin Acceptor - Not Present,200,OK,Test Thread 1-1,text,false,10,36
1421712385722,23,Coin Acceptor - Jam,200,OK,Test Thread 1-1,text,false,10,23
1421712385857,20,Coin Hopper - Not Present,200,OK,Test Thread 1-1,text,false,10,19
1421712385986,88,Coin Hopper - Empty,200,OK,Test Thread 1-1,text,false,10,87
1421712386178,269,Coin Changer - Not Present,200,OK,Test Thread 1-1,text,false,10,269
1421712386459,59,Coin Changer - Jam,200,OK,Test Thread 1-1,text,false,10,59
1421712386534,38,Coin Changer - Empty,200,OK,Test Thread 1-1,text,false,10,38
1421712386582,23,Coin Changer - Low,200,OK,Test Thread 1-1,text,false,10,23
1421712386616,20,Coin Escrow - Not Present,200,OK,Test Thread 1-1,text,false,10,19
1421712386646,19,Coin Escrow - Jam,200,OK,Test Thread 1-1,text,false,10,19
1421712386675,20,Coin Canister - Removed,200,OK,Test Thread 1-1,text,false,10,19
1421712386704,23,Pay Station - Alarm On,200,OK,Test Thread 1-1,text,false,10,23
1421712386736,19,Pay Station - Door Opened,200,OK,Test Thread 1-1,text,false,10,18
1421712386764,21,Pay Station - Service Mode Enabled,200,OK,Test Thread 1-1,text,false,10,21
1421712386794,21,Pay Station - Low Power Shutdown On,200,OK,Test Thread 1-1,text,false,10,20
1421712386824,20,Pay Station - Shock On,200,OK,Test Thread 1-1,text,false,10,20
1421712386854,20,Pay Station - Public Key Update,200,OK,Test Thread 1-1,text,false,10,20
1421712386893,22,Pay Station - Coin Changer Low [Old],200,OK,Test Thread 1-1,text,false,10,22
1421712386927,18,Pay Station - Coin Changer High [Old],200,OK,Test Thread 1-1,text,false,10,18
1421712386954,21,Pay Station - Coin Changer Jam [Old],200,OK,Test Thread 1-1,text,false,10,21
1421712386985,20,Pay Station - Pay Station Failure [?],200,OK,Test Thread 1-1,text,false,10,20
1421712387015,19,Printer - Not Present,200,OK,Test Thread 1-1,text,false,10,19
1421712387043,21,Printer - Cutter Error,200,OK,Test Thread 1-1,text,false,10,21
1421712387073,22,Printer - Head Error,200,OK,Test Thread 1-1,text,false,10,21
1421712387104,20,Printer - Lever Disengaged,200,OK,Test Thread 1-1,text,false,10,20
1421712387133,21,Printer - Paper Low,200,OK,Test Thread 1-1,text,false,10,21
1421712387163,21,Printer - Paper Out,200,OK,Test Thread 1-1,text,false,10,21
1421712387194,20,Printer - Paper Jam,200,OK,Test Thread 1-1,text,false,10,20
1421712387223,21,Printer - Temperature Error,200,OK,Test Thread 1-1,text,false,10,21
1421712387252,23,Printer - Voltage Error,200,OK,Test Thread 1-1,text,false,10,22
1421712387283,21,RFID Card Reader - Not Present,200,OK,Test Thread 1-1,text,false,10,21
1421712387315,27,Tx - Cash,200,OK,Test Thread 1-1,text,false,10,27
1421712472009,533,Bill Acceptor - Not Present,200,OK,Test Thread 1-1,text,false,10,532
1421712472594,21,Bill Acceptor - Jam,200,OK,Test Thread 1-1,text,false,10,20
1421712472637,27,Bill Acceptor - Unable To Stack,200,OK,Test Thread 1-1,text,false,10,27
1421712472819,148,Bill Stacker - Not Present,200,OK,Test Thread 1-1,text,false,10,148
1421712472988,26,Bill Stacker - Full,200,OK,Test Thread 1-1,text,false,10,26
1421712473031,23,Bill Canister - Removed,200,OK,Test Thread 1-1,text,false,10,23
1421712473077,56,Card Reader - Not Present,200,OK,Test Thread 1-1,text,false,10,56
1421712473150,42,Coin Acceptor - Not Present,200,OK,Test Thread 1-1,text,false,10,42
1421712473211,22,Coin Acceptor - Jam,200,OK,Test Thread 1-1,text,false,10,22
1421712473280,77,Coin Hopper - Not Present,200,OK,Test Thread 1-1,text,false,10,77
1421712473411,502,Coin Hopper - Empty,200,OK,Test Thread 1-1,text,false,10,497
1421712473926,28,Coin Changer - Not Present,200,OK,Test Thread 1-1,text,false,10,27
1421712473964,40,Coin Changer - Jam,200,OK,Test Thread 1-1,text,false,10,39
1421712474012,21,Coin Changer - Empty,200,OK,Test Thread 1-1,text,false,10,21
1421712474042,21,Coin Changer - Low,200,OK,Test Thread 1-1,text,false,10,21
1421712474074,19,Coin Escrow - Not Present,200,OK,Test Thread 1-1,text,false,10,19
1421712474103,52,Coin Escrow - Jam,200,OK,Test Thread 1-1,text,false,10,52
1421712474165,28,Coin Canister - Removed,200,OK,Test Thread 1-1,text,false,10,27
1421712474202,21,Pay Station - Alarm On,200,OK,Test Thread 1-1,text,false,10,21
1421712474231,22,Pay Station - Door Opened,200,OK,Test Thread 1-1,text,false,10,22
1421712474262,21,Pay Station - Service Mode Enabled,200,OK,Test Thread 1-1,text,false,10,21
1421712474293,20,Pay Station - Low Power Shutdown On,200,OK,Test Thread 1-1,text,false,10,20
1421712474324,20,Pay Station - Shock On,200,OK,Test Thread 1-1,text,false,10,19
1421712474353,29,Pay Station - Public Key Update,200,OK,Test Thread 1-1,text,false,10,28
1421712474391,29,Pay Station - Coin Changer Low [Old],200,OK,Test Thread 1-1,text,false,10,28
1421712474431,25,Pay Station - Coin Changer High [Old],200,OK,Test Thread 1-1,text,false,10,24
1421712474467,26,Pay Station - Coin Changer Jam [Old],200,OK,Test Thread 1-1,text,false,10,26
1421712474503,24,Pay Station - Pay Station Failure [?],200,OK,Test Thread 1-1,text,false,10,24
1421712474536,27,Printer - Not Present,200,OK,Test Thread 1-1,text,false,10,26
1421712474571,21,Printer - Cutter Error,200,OK,Test Thread 1-1,text,false,10,21
1421712474601,21,Printer - Head Error,200,OK,Test Thread 1-1,text,false,10,21
1421712474631,22,Printer - Lever Disengaged,200,OK,Test Thread 1-1,text,false,10,21
1421712474661,22,Printer - Paper Low,200,OK,Test Thread 1-1,text,false,10,21
1421712474691,21,Printer - Paper Out,200,OK,Test Thread 1-1,text,false,10,21
1421712474722,21,Printer - Paper Jam,200,OK,Test Thread 1-1,text,false,10,21
1421712474751,21,Printer - Temperature Error,200,OK,Test Thread 1-1,text,false,10,21
1421712474780,22,Printer - Voltage Error,200,OK,Test Thread 1-1,text,false,10,22
1421712474810,23,RFID Card Reader - Not Present,200,OK,Test Thread 1-1,text,false,10,22
1421712474843,30,Tx - Cash,200,OK,Test Thread 1-1,text,false,10,30
1421712552691,594,Bill Acceptor - Not Present,200,OK,Test Thread 1-1,text,false,10,593
1421712553355,27,Bill Acceptor - Jam,200,OK,Test Thread 1-1,text,false,10,27
1421712553406,26,Bill Acceptor - Unable To Stack,200,OK,Test Thread 1-1,text,false,10,26
1421712553724,29,Bill Stacker - Not Present,200,OK,Test Thread 1-1,text,false,10,29
1421712553779,25,Bill Stacker - Full,200,OK,Test Thread 1-1,text,false,10,25
1421712553822,22,Bill Canister - Removed,200,OK,Test Thread 1-1,text,false,10,22
1421712553866,59,Card Reader - Not Present,200,OK,Test Thread 1-1,text,false,10,59
1421712553955,35,Coin Acceptor - Not Present,200,OK,Test Thread 1-1,text,false,10,35
1421712554012,20,Coin Acceptor - Jam,200,OK,Test Thread 1-1,text,false,10,20
1421712554047,126,Coin Hopper - Not Present,200,OK,Test Thread 1-1,text,false,10,126
1421712554281,127,Coin Hopper - Empty,200,OK,Test Thread 1-1,text,false,10,127
1421712554456,124,Coin Changer - Not Present,200,OK,Test Thread 1-1,text,false,10,124
1421712554593,163,Coin Changer - Jam,200,OK,Test Thread 1-1,text,false,10,162
1421712554766,86,Coin Changer - Empty,200,OK,Test Thread 1-1,text,false,10,86
1421712554867,24,Coin Changer - Low,200,OK,Test Thread 1-1,text,false,10,24
1421712554905,27,Coin Escrow - Not Present,200,OK,Test Thread 1-1,text,false,10,27
1421712554942,50,Coin Escrow - Jam,200,OK,Test Thread 1-1,text,false,10,49
1421712555001,20,Coin Canister - Removed,200,OK,Test Thread 1-1,text,false,10,20
1421712555031,21,Pay Station - Alarm On,200,OK,Test Thread 1-1,text,false,10,20
1421712555062,20,Pay Station - Door Opened,200,OK,Test Thread 1-1,text,false,10,20
1421712555092,19,Pay Station - Service Mode Enabled,200,OK,Test Thread 1-1,text,false,10,18
1421712555121,20,Pay Station - Low Power Shutdown On,200,OK,Test Thread 1-1,text,false,10,20
1421712555150,21,Pay Station - Shock On,200,OK,Test Thread 1-1,text,false,10,21
1421712555179,49,Pay Station - Public Key Update,200,OK,Test Thread 1-1,text,false,10,49
1421712555238,23,Pay Station - Coin Changer Low [Old],200,OK,Test Thread 1-1,text,false,10,23
1421712555270,22,Pay Station - Coin Changer High [Old],200,OK,Test Thread 1-1,text,false,10,22
1421712555302,28,Pay Station - Coin Changer Jam [Old],200,OK,Test Thread 1-1,text,false,10,28
1421712555339,22,Pay Station - Pay Station Failure [?],200,OK,Test Thread 1-1,text,false,10,21
1421712555381,20,Printer - Not Present,200,OK,Test Thread 1-1,text,false,10,20
1421712555409,21,Printer - Cutter Error,200,OK,Test Thread 1-1,text,false,10,21
1421712555439,22,Printer - Head Error,200,OK,Test Thread 1-1,text,false,10,22
1421712555469,22,Printer - Lever Disengaged,200,OK,Test Thread 1-1,text,false,10,22
1421712555501,21,Printer - Paper Low,200,OK,Test Thread 1-1,text,false,10,21
1421712555531,20,Printer - Paper Out,200,OK,Test Thread 1-1,text,false,10,19
1421712555561,27,Printer - Paper Jam,200,OK,Test Thread 1-1,text,false,10,27
1421712555598,23,Printer - Temperature Error,200,OK,Test Thread 1-1,text,false,10,23
1421712555629,23,Printer - Voltage Error,200,OK,Test Thread 1-1,text,false,10,23
1421712555661,19,RFID Card Reader - Not Present,200,OK,Test Thread 1-1,text,false,10,19
1421712555693,29,Tx - Cash,200,OK,Test Thread 1-1,text,false,10,29
1421712635546,780,Tx - Cash,200,OK,Test Thread 1-1,text,false,10,778
1421712684877,599,Tx - Cash,200,OK,Test Thread 1-1,text,false,10,598
1421712799355,791,Tx - Cash,200,OK,Test Thread 1-1,text,true,205,790
1421713602250,672,Tx - Cash,200,OK,Test Thread 1-1,text,false,269,671
1421713629495,696,Tx - Cash,200,OK,Test Thread 1-1,text,false,269,695
1421713696208,611,Tx - Cash,200,OK,Test Thread 1-1,text,false,269,610
1421714260406,1157,Tx - Cash,500,Internal Server Error,Test Thread 1-1,,false,0,0
1421714367841,627,Tx - Cash,200,OK,Test Thread 1-1,text,true,205,626
1421714470637,667,Tx - Cash,200,OK,Test Thread 1-1,text,true,205,665
1421718062636,844,Tx - Cash,200,OK,Test Thread 1-1,text,true,205,843
1421771669701,1659,Tx - Cash,200,OK,Test Thread 1-1,text,true,205,1657
1421771705558,786,Tx - Cash,200,OK,Test Thread 1-1,text,true,205,785
1421771736961,641,Tx - Cash,200,OK,Test Thread 1-1,text,true,205,640
1421771847089,634,Tx - Cash,200,OK,Test Thread 1-1,text,true,205,633
1421771932726,611,Tx - Cash,200,OK,Test Thread 1-1,text,true,205,610
1421771960872,585,Tx - Cash,200,OK,Test Thread 1-1,text,true,205,583
1421772269006,678,Tx - Cash,200,OK,Test Thread 1-1,text,true,205,677
1421772290852,669,Tx - Cash,200,OK,Test Thread 1-1,text,true,205,668
1421772381145,600,Tx - Cash,200,OK,Test Thread 1-1,text,true,205,599
1421772539741,579,Tx - Cash,200,OK,Test Thread 1-1,text,true,205,578
1421772571306,616,Tx - Cash,200,OK,Test Thread 1-1,text,true,205,615
1421772745435,602,Tx - Cash,200,OK,Test Thread 1-1,text,true,205,601
0,0,Error: ,Non HTTP response code: java.net.MalformedURLException,Non HTTP response message: no protocol: ,Example Thread Group 1-1,text,false,642,0
0,0,Error: ,Non HTTP response code: java.net.MalformedURLException,Non HTTP response message: no protocol: ,Example Thread Group 1-1,text,false,642,0
0,0,Error: ,Non HTTP response code: java.net.MalformedURLException,Non HTTP response message: no protocol: ,Example Thread Group 1-1,text,false,642,0
0,0,Error: ,Non HTTP response code: java.net.MalformedURLException,Non HTTP response message: no protocol: ,SOAPThreadGroup 1-1,text,false,642,0
0,0,Error: ,Non HTTP response code: java.net.MalformedURLException,Non HTTP response message: no protocol: ,SOAPThreadGroup 1-1,text,false,642,0
1421779631732,820,Tx - Cash,200,OK,Test Thread 1-1,text,true,205,819
0,0,Error: ,Non HTTP response code: java.net.MalformedURLException,Non HTTP response message: no protocol: ,SOAPThreadGroup 1-1,text,false,642,0
0,0,Error: ,Non HTTP response code: java.net.MalformedURLException,Non HTTP response message: no protocol: ,SOAPThreadGroup 1-1,text,false,642,0
0,0,Error: ,Non HTTP response code: java.net.MalformedURLException,Non HTTP response message: no protocol: ,SOAPThreadGroup 1-1,text,false,642,0
0,0,Error: ,Non HTTP response code: java.net.MalformedURLException,Non HTTP response message: no protocol: ,SOAPThreadGroup 1-1,text,false,642,0
0,0,Error: ,Non HTTP response code: java.net.MalformedURLException,Non HTTP response message: no protocol: ,SOAPThreadGroup 1-1,text,false,642,0
0,0,Error: ,Non HTTP response code: java.net.MalformedURLException,Non HTTP response message: no protocol: ,SOAPThreadGroup 1-1,text,false,642,0
0,0,Error: ,Non HTTP response code: java.net.MalformedURLException,Non HTTP response message: no protocol: ,SOAPThreadGroup 1-1,text,false,642,0
0,0,Error: ,Non HTTP response code: java.net.MalformedURLException,Non HTTP response message: no protocol: ,SOAPThreadGroup 1-1,text,false,642,0
0,0,Error: ,Non HTTP response code: java.net.MalformedURLException,Non HTTP response message: no protocol: ,SOAPThreadGroup 1-1,text,false,642,0
0,0,Error: ,Non HTTP response code: java.net.MalformedURLException,Non HTTP response message: no protocol: ,SOAPThreadGroup 1-1,text,false,642,0
0,0,Error: ,Non HTTP response code: java.net.MalformedURLException,Non HTTP response message: no protocol: ,SOAPThreadGroup 1-1,text,false,642,0
0,0,Error: ,Non HTTP response code: java.net.MalformedURLException,Non HTTP response message: no protocol: ,SOAPThreadGroup 1-1,text,false,642,0
0,0,Error: ,Non HTTP response code: java.net.MalformedURLException,Non HTTP response message: no protocol: ,SOAPThreadGroup 1-1,text,false,642,0
0,0,Error: ,Non HTTP response code: java.net.MalformedURLException,Non HTTP response message: no protocol: ,SOAPThreadGroup 1-1,text,false,642,0
0,0,Error: ,Non HTTP response code: java.net.MalformedURLException,Non HTTP response message: no protocol: ,SOAPThreadGroup 1-1,text,false,642,0
0,0,Error: ,Non HTTP response code: java.net.MalformedURLException,Non HTTP response message: no protocol: ,SOAPThreadGroup 1-1,text,false,642,0
0,0,Error: ,Non HTTP response code: java.net.MalformedURLException,Non HTTP response message: no protocol: ,SOAPThreadGroup 1-1,text,false,642,0
0,0,Error: ,Non HTTP response code: java.net.MalformedURLException,Non HTTP response message: no protocol: ,SOAPThreadGroup 1-1,text,false,642,0
0,0,Error: ,Non HTTP response code: java.net.MalformedURLException,Non HTTP response message: no protocol: ,SOAPThreadGroup 1-1,text,false,642,0
1421782463689,607,,500,Internal Server Error,SOAPThreadGroup 1-1,,false,0,0
1421782498199,584,,500,Internal Server Error,SOAPThreadGroup 1-1,,false,0,0
0,0,Error: ,Non HTTP response code: java.net.MalformedURLException,Non HTTP response message: no protocol: POST https://dev.digitalpaytech.com:/XMLRPC_PS2,SOAPThreadGroup 1-1,text,false,689,0
1421782603830,600,,500,Internal Server Error,SOAPThreadGroup 1-1,,false,0,0
1421782620093,547,,500,Internal Server Error,SOAPThreadGroup 1-1,,false,0,0
1421782688547,598,,500,Internal Server Error,SOAPThreadGroup 1-1,,false,0,0
1421782713140,593,,500,Internal Server Error,SOAPThreadGroup 1-1,,false,0,0
1421782731627,564,,500,Internal Server Error,SOAPThreadGroup 1-1,,false,0,0
1421782765485,577,,500,Internal Server Error,SOAPThreadGroup 1-1,,false,0,0
1421783116267,574,,500,Internal Server Error,SOAPThreadGroup 1-1,,false,0,0
1421783135801,576,,500,Internal Server Error,SOAPThreadGroup 1-1,,false,0,0
1421783164816,1119,,Non HTTP response code: java.net.ConnectException,Non HTTP response message: Connection refused: connect,SOAPThreadGroup 1-1,text,false,1831,0
1421783185027,587,,500,Internal Server Error,SOAPThreadGroup 1-1,,false,0,0
1421783286578,601,,500,Internal Server Error,SOAPThreadGroup 1-1,,false,0,0
1421783305007,579,,500,Internal Server Error,SOAPThreadGroup 1-1,,false,0,0
1421783460894,575,,500,Internal Server Error,SOAPThreadGroup 1-1,,false,0,0
1421783574177,630,,500,Internal Server Error,SOAPThreadGroup 1-1,,false,0,0
1421783597451,580,,500,Internal Server Error,SOAPThreadGroup 1-1,,false,0,0
1421783669589,587,,500,Internal Server Error,SOAPThreadGroup 1-1,,false,0,0
1421784034049,660,,200,OK,SOAPThreadGroup 1-1,text,true,416,659
1421784353072,1541,,200,OK,SOAPThreadGroup 1-1,text,true,416,1539
1421784426210,606,,200,OK,SOAPThreadGroup 1-1,text,true,416,605
1421784509891,814,,200,OK,SOAPThreadGroup 1-1,text,true,416,812
1421786981282,673,,200,OK,SOAPThreadGroup 1-1,text,true,416,672
1421787148828,769,,200,OK,SOAPThreadGroup 1-1,text,true,416,769
1421787230983,679,,200,OK,SOAPThreadGroup 1-1,text,true,416,678
1421787255012,603,,200,OK,SOAPThreadGroup 1-1,text,true,416,602
1421787337403,630,,200,OK,SOAPThreadGroup 1-1,text,true,416,629
1421787662040,191,,200,OK,SOAPThreadGroup 1-1,text,true,416,191
1421787711838,95,,200,OK,SOAPThreadGroup 1-1,text,true,416,95
1421787757436,264,,200,OK,SOAPThreadGroup 1-1,text,true,416,263
1421787844463,89,,200,OK,SOAPThreadGroup 1-1,text,true,416,89
1421787877408,82,,200,OK,SOAPThreadGroup 1-1,text,true,416,82
1421787892714,1003,,200,OK,SOAPThreadGroup 1-1,text,true,416,1002
1421788417719,77,,200,OK,SOAPThreadGroup 1-1,text,true,416,76
